Business Data Science - 7 The Power of Randomization
…
# Randomize
randomized <- im::randomizer$new(
  data = my_data, 
  seed = 12345, 
  max_attempts = 1000,
  variables = c("x1", "x2"), 
  standard = "Not Concerned"
)

# Get Randomized Data
randomized$data

# A tibble: 10,000 × 3
       x1      x2 treated
    <dbl>   <dbl> <lgl>  
 1 -0.206 -1.06   TRUE   
 2 -0.559  1.66   TRUE   
 3  0.465  1.25   TRUE   
 4  0.400  0.808  TRUE   
 5 -0.964 -0.290  FALSE  
 6  0.642 -0.741  FALSE  
 7  0.632 -0.0584 FALSE  
 8 -1.27  -0.767  TRUE   
 9 -0.945  0.355  TRUE   
10 -1.13   0.332  TRUE   
# ℹ 9,990 more rows
…
